{
    "pie": [
        {
            "file_name": "AospExtended-v6.0-angler-20181130-0746-OFFICIAL.zip"
        },
        {
            "file_name": "AospExtended-v6.0-angler-20181201-1945-OFFICIAL.zip"
        },
        {
            "file_name": "AospExtended-v6.1-angler-20181226-1315-OFFICIAL.zip"
        }  
    ]    
}
