{
    "oreo": [
        {
            "file_name": "AospExtended-v5.8-d801-20180914-1330-OFFICIAL.zip"
        }
    ],
    "pie": [
        {
            "file_name": "AospExtended-v6.0-d801-20181101-1903-OFFICIAL.zip"
        },
        {
            "file_name": "AospExtended-v6.0-d801-20181203-1107-OFFICIAL.zip"
        },
        {
            "file_name": "AospExtended-v6.1-d801-20181219-0959-OFFICIAL.zip"
        },
        {
            "file_name": "AospExtended-v6.1-d801-20190104-2020-OFFICIAL.zip"
        }
    ]
}
