{
    "oreo": [
        {
            "file_name": "AospExtended-v5.8-ls980-20180917-1806-OFFICIAL.zip"
        }
    ],
    "pie": [
        {
            "file_name": "AospExtended-v6.0-ls980-20181101-1940-OFFICIAL.zip"
        },
        {
            "file_name": "AospExtended-v6.0-ls980-20181203-1135-OFFICIAL.zip"
        },
        {
            "file_name": "AospExtended-v6.1-ls980-20181219-1044-OFFICIAL.zip"
        },
        {
            "file_name": "AospExtended-v6.1-ls980-20190104-2118-OFFICIAL.zip"
        }
    ]
}
